Danish Kings
…
Do your start and end of reign columns contain NAs? Choose the right
strategy to deal with them: na.omit(),
na.rm=TRUE, !is.na()

Create a new column called duration in the kings
dataset, utilizing the mutate() function from tidyverse.
Check with your group to brainstorm the options.

# YOUR CODE
kings %>% 
  select(Name, Reign_end, Reign_start) %>% 
  na.omit() %>% 
  mutate(duration= Reign_end-Reign_start)

## # A tibble: 54 × 4
##    Name               Reign_end Reign_start duration
##    <chr>                  <dbl>       <dbl>    <dbl>
##  1 Gorm_den_Gamle           958         936       22
##  2 Harald_Blåtand           986         958       28
##  3 Svend_Tveskæg           1014         986       28
##  4 Harald_2                1018        1014        4
##  5 Knud_den_Store          1035        1018       17
##  6 Hardeknud               1042        1035        7
##  7 Magnus_den_Gode         1047        1042        5
##  8 Svend_Estridsen         1074        1047       27
##  9 Harald_3_Hen            1080        1074        6
## 10 Knud_2_den_Hellige      1086        1080        6
## # ℹ 44 more rows
…
You have calculated the average duration above. Use it now to
filter() the duration column in
kings dataset. Display the result and also count the
resulting rows with count()

# YOUR CODE
kings_dur <- kings %>% 
  select(Name, Reign_end, Reign_start) %>% 
  na.omit() %>% 
  mutate(duration= Reign_end-Reign_start)

kings_dur

## # A tibble: 54 × 4
##    Name               Reign_end Reign_start duration
##    <chr>                  <dbl>       <dbl>    <dbl>
##  1 Gorm_den_Gamle           958         936       22
##  2 Harald_Blåtand           986         958       28
##  3 Svend_Tveskæg           1014         986       28
##  4 Harald_2                1018        1014        4
##  5 Knud_den_Store          1035        1018       17
##  6 Hardeknud               1042        1035        7
##  7 Magnus_den_Gode         1047        1042        5
##  8 Svend_Estridsen         1074        1047       27
##  9 Harald_3_Hen            1080        1074        6
## 10 Knud_2_den_Hellige      1086        1080        6
## # ℹ 44 more rows

kings_dur %>% 
  filter(duration>20.09) %>% 
  arrange(desc(duration))

## # A tibble: 25 × 4
##    Name                Reign_end Reign_start duration
##    <chr>                   <dbl>       <dbl>    <dbl>
##  1 Christian_4              1648        1588       60
##  2 Margrethe_2              2024        1972       52
##  3 Erik_7_af_Pommern        1439        1396       43
##  4 Christian_9              1906        1863       43
##  5 Christian_7              1808        1766       42
##  6 Valdemar_2_Sejr          1241        1202       39
##  7 Valdemar_4_Atterdag      1375        1340       35
##  8 Christian_10             1947        1912       35
##  9 Erik_6_Menved            1319        1286       33
## 10 Christian_1              1481        1448       33
## # ℹ 15 more rows
…
